{
	"info": {
		"_postman_id": "af53f1d4-af4a-4676-9bc2-8304930ca7d1",
		"name": "Transaction Demo",
		"schema": "https://schema.getpostman.com/json/collection/v2.1.0/collection.json",
		"_exporter_id": "2512294"
	},
	"item": [
		{
			"name": "Create Account",
			"request": {
				"method": "POST",
				"header": [
					{
						"key": "Content-Type",
						"value": "application/json",
						"type": "text"
					}
				],
				"body": {
					"mode": "raw",
					"raw": "{\r\n    \"balance\": 100.11,\r\n    \"currency\": \"EUR\"\r\n}",
					"options": {
						"raw": {
							"language": "json"
						}
					}
				},
				"url": {
					"raw": "http://{{ip}}:{{port}}/accounts",
					"protocol": "http",
					"host": [
						"{{ip}}"
					],
					"port": "{{port}}",
					"path": [
						"accounts"
					]
				}
			},
			"response": []
		},
		{
			"name": "Create Transaction",
			"request": {
				"method": "POST",
				"header": [
					{
						"key": "Content-Type",
						"value": "application/json",
						"type": "text"
					}
				],
				"body": {
					"mode": "raw",
					"raw": "{\r\n    \"amount\": 10.11,\r\n    \"currency\": \"EUR\",\r\n    \"sourceAccountId\": \"\",\r\n    \"sourceAccountVersion\": 0,\r\n    \"targetAccountId\": \"\",\r\n    \"targetAccountVersion\": 0\r\n}",
					"options": {
						"raw": {
							"language": "json"
						}
					}
				},
				"url": {
					"raw": "http://{{ip}}:{{port}}/transactions",
					"protocol": "http",
					"host": [
						"{{ip}}"
					],
					"port": "{{port}}",
					"path": [
						"transactions"
					]
				}
			},
			"response": []
		},
		{
			"name": "Find All Accounts",
			"protocolProfileBehavior": {
				"disableBodyPruning": true
			},
			"request": {
				"method": "GET",
				"header": [],
				"body": {
					"mode": "raw",
					"raw": "{\r\n    \"balance\": 100.11,\r\n    \"currency\": \"EUR\"\r\n}",
					"options": {
						"raw": {
							"language": "json"
						}
					}
				},
				"url": {
					"raw": "http://{{ip}}:{{port}}/accounts",
					"protocol": "http",
					"host": [
						"{{ip}}"
					],
					"port": "{{port}}",
					"path": [
						"accounts"
					]
				}
			},
			"response": []
		},
		{
			"name": "Find All Transactions",
			"protocolProfileBehavior": {
				"disableBodyPruning": true
			},
			"request": {
				"method": "GET",
				"header": [
					{
						"key": "Content-Type",
						"value": "application/json",
						"type": "text"
					}
				],
				"body": {
					"mode": "raw",
					"raw": "{\r\n    \"balance\": 100.11,\r\n    \"currency\": \"EUR\"\r\n}",
					"options": {
						"raw": {
							"language": "json"
						}
					}
				},
				"url": {
					"raw": "http://{{ip}}:{{port}}/transactions",
					"protocol": "http",
					"host": [
						"{{ip}}"
					],
					"port": "{{port}}",
					"path": [
						"transactions"
					]
				}
			},
			"response": []
		},
		{
			"name": "Find Account By Id",
			"request": {
				"method": "GET",
				"header": [],
				"url": {
					"raw": "http://{{ip}}:{{port}}/accounts/{{accountId}}",
					"protocol": "http",
					"host": [
						"{{ip}}"
					],
					"port": "{{port}}",
					"path": [
						"accounts",
						"{{accountId}}"
					]
				}
			},
			"response": []
		},
		{
			"name": "Find Transaction By Id",
			"request": {
				"method": "GET",
				"header": [
					{
						"key": "Content-Type",
						"value": "application/json",
						"type": "text"
					}
				],
				"url": {
					"raw": "http://{{ip}}:{{port}}/transactions/{{transactionId}}",
					"protocol": "http",
					"host": [
						"{{ip}}"
					],
					"port": "{{port}}",
					"path": [
						"transactions",
						"{{transactionId}}"
					]
				}
			},
			"response": []
		}
	]
}